<svg xmlns="http://www.w3.org/2000/svg" xmlns:xlink="http://www.w3.org/1999/xlink" width="256" height="206.835" viewBox="0 0 256 206.835">
  <defs>
    <clipPath id="clip-path">
      <path id="Path_1797" data-name="Path 1797" d="M0,63.21H256V-143.625H0Z" transform="translate(0 143.625)" fill="#155163"/>
    </clipPath>
  </defs>
  <g id="Group_2301" data-name="Group 2301" clip-path="url(#clip-path)" style="isolation: isolate">
    <g id="Group_2300" data-name="Group 2300" transform="translate(0 0)">
      <path id="Path_1796" data-name="Path 1796" d="M57.211,27.254a14.171,14.171,0,0,0-2.275-2.673,56.216,56.216,0,0,0-6.224-3.844c-2.369-1.257-4.135-.871-5.939,1.113a19.669,19.669,0,0,0-2,2.716A7.079,7.079,0,0,1,33.8,28.159a3.163,3.163,0,0,1-3.222-2.4c-1.116-3.929-2.159-7.877-3.338-11.786a24.148,24.148,0,0,0-1.776-4.1,1.617,1.617,0,0,0-2.3-.745,7.768,7.768,0,0,0-2.893,1.858c-3.505,4.924-6.459,10.15-7.565,16.2-.389,2.123-.529,4.3-1.024,6.391A22.514,22.514,0,0,1,5.71,43.961a5.236,5.236,0,0,1-.616.439c0-.873,0-1.56,0-2.244.053-6.25.088-12.5.176-18.75a8.4,8.4,0,0,0-1.98-5.578c-4.166-5.174-9.27-8.69-16.04-9.538a24.467,24.467,0,0,1-5.118-1.515,18.173,18.173,0,0,0-14.76.878A21.77,21.77,0,0,1-39.577,9.8a11.315,11.315,0,0,0-8.253,5.091,22.676,22.676,0,0,1-2.081,2.48,19.647,19.647,0,0,0-4.68,10.068c-1.95,10.8-.74,21.433,1.578,32.019.109.5.147,1.024.259,1.528.58,2.563-.38,4.461-2.432,5.981a29.3,29.3,0,0,1-10.477,5.039c-6.287,1.545-12.638,2.834-18.955,4.268-4.441,1.011-8.864,2.044-12.826,4.492-8.08,4.99-11.286,12.006-10.059,21.517,1.506,11.692,2.8,23.41,4.185,35.118.269,2.281.517,4.568.818,7.236-.55-.621-.89-.973-1.2-1.351-11.03-13.537-18.147-28.994-22.373-45.843a127.728,127.728,0,0,1-3.347-43.494A125.305,125.305,0,0,1-97.56-19.042C-78.232-40.8-54.16-54.65-25.529-59.672c42.081-7.381,79.3,3.35,110.864,32.3A121.265,121.265,0,0,1,123.457,40.83c7.039,37.225-.455,71.379-23.089,102-.472.638-.975,1.251-1.623,2.079-1.48-3.057-2.882-5.94-4.277-8.826-.265-.55-.521-1.1-.766-1.663a3.293,3.293,0,0,1,.454-3.567,18.315,18.315,0,0,0,1.568-2.334,7.352,7.352,0,0,0-.412-7.993,8.085,8.085,0,0,1-1.151-3.078c-.4-2.8-1.2-3.69-3.937-4.62a4.74,4.74,0,0,1-2.254-1.947,7.094,7.094,0,0,0-4.356-3.054,16.192,16.192,0,0,1-4.6-2.234,5.086,5.086,0,0,0-4.844-.949c-3.842,1.187-6.576,3.351-7.851,7.349-1.228,3.842-2.817,7.566-4.2,11.361a9.228,9.228,0,0,1-5.173,5.611c-9.883,4.351-19.725,8.8-29.588,13.2-3.913,1.743-7.209.521-9.035-3.393-1.011-2.169-1.9-4.4-2.771-6.627-2.509-6.429-5.029-12.853-7.453-19.313a34.747,34.747,0,0,0-11.584-15.3c-4.294-3.358-8.6-6.7-12.876-10.079-1.881-1.488-2.091-4.234-.245-5.262,2.506-1.393,5.366-.694,8.115-1.069a7.02,7.02,0,0,0,5.35-4.133,10.957,10.957,0,0,1,1.205-1.575c.128.062.256.12.383.179-.3,2.477-.569,4.957-.91,7.429-.367,2.65-.795,5.292-1.207,7.936a4.739,4.739,0,0,0,2.2,4.832,40.809,40.809,0,0,1,12.493,14.855c.985,1.97,1.8,4.027,2.645,6.064,2.514,6.067,4.963,12.166,7.526,18.213,1.336,3.151,2.343,3.6,5.6,2.632a59.182,59.182,0,0,0,6.76-2.391c5.768-2.514,11.489-5.131,17.208-7.758a17,17,0,0,0,8.89-9.192c1.65-3.942,3.42-7.831,5.122-11.75,1-2.3.559-3.286-1.822-4.209-2.67-1.034-5.338-2.074-8-3.141a22.719,22.719,0,0,1-2.416-1.145c-4.028-2.192-5.487-5.131-4.509-9.594a60.246,60.246,0,0,1,2.144-6.989c1.043-2.972,3.211-4.345,6.38-4.306,2.908.036,5.831.071,8.727-.157,7.092-.562,11.466-4.221,13.435-11.076a48.048,48.048,0,0,0,1.226-5.2,2.624,2.624,0,0,0-.513-1.9,7.209,7.209,0,0,0-2.2-1.694c-4.771-2.429-9.549-4.845-14.377-7.159A4.864,4.864,0,0,1,59.686,45.2a5.85,5.85,0,0,0-2-4.372c-1.721-1.526-3.476-3.021-5.311-4.405A6.116,6.116,0,0,1,49.9,30.769c.089-1.509.513-1.979,2.029-2.147,1.694-.187,3.5.078,5.282-1.368M48.783-32.512a3.115,3.115,0,0,0-3.16-3.216,3.166,3.166,0,0,0-3.16,3.089,3.162,3.162,0,0,0,3.175,3.216,3.123,3.123,0,0,0,3.144-3.089M77.508,10.17a3.832,3.832,0,0,0,3.851-3.822,3.871,3.871,0,0,0-3.877-3.821,3.809,3.809,0,0,0-3.821,3.847,3.748,3.748,0,0,0,3.847,3.8M19.16-12.717a4.67,4.67,0,0,0-4.689-4.62,4.737,4.737,0,0,0-4.63,4.711,4.733,4.733,0,0,0,4.721,4.616,4.663,4.663,0,0,0,4.6-4.706m-87.129,2.153a5.372,5.372,0,0,0-5.364-5.36,5.47,5.47,0,0,0-5.4,5.369,5.416,5.416,0,0,0,5.475,5.408,5.324,5.324,0,0,0,5.285-5.416M116.344,55.172c-.477-.572-.69-.864-.937-1.12-1.662-1.722-3.289-3.481-5.014-5.138a2.178,2.178,0,0,1-.706-2.451c.76-2.756,1.4-5.546,2.075-8.324.091-.37.12-.756.228-1.476l-7.2,6.655c-2.329-1.835-4.592-3.622-6.856-5.406a33.181,33.181,0,0,0,1.057,6.6c.419,1.512.166,2.35-1.313,3.07-1.946.948-3.751,2.185-5.616,3.3a62.658,62.658,0,0,0,7.7,1.368c.883.105,1.264.4,1.413,1.328.383,2.421.912,4.819,1.382,7.225l.288.006q.961-3.054,1.925-6.12l11.576.488M-91.935,51.377c0-2.607-.065-4.765.039-6.917a3.14,3.14,0,0,1,.837-1.915c1.976-1.943,4.054-3.782,6.086-5.667a12.431,12.431,0,0,0,.824-.963c-3,.134-5.693.251-8.566.377V27.745c-.524.334-.838.511-1.129.724-1.967,1.449-3.949,2.877-5.879,4.372a2.016,2.016,0,0,1-2.18.376c-2.288-.844-4.617-1.58-6.934-2.347-.5-.164-1.008-.287-1.727-.49.278.642.429,1.03.609,1.4,1.508,3.132,2.938,6.3,4.567,9.368a3.018,3.018,0,0,1-.223,3.775c-1.231,1.564-2.224,3.312-3.319,4.978a67.619,67.619,0,0,0,8.167-2.782,2.621,2.621,0,0,1,2.841.292c1.816,1.306,3.728,2.478,5.988,3.962M-38.051-37c.009.114.019.228.027.341,2.85,1.053,5.687,2.139,8.556,3.138a2.6,2.6,0,0,1,1.846,1.852c1,3.223,2.139,6.407,3.227,9.605.156.457.337.907.505,1.359l.31-.037L-20.342-32.2-9.47-29.932c-1.632-2.031-2.935-3.792-4.394-5.415a2.193,2.193,0,0,1-.285-2.961c1.334-2.4,2.5-4.9,3.9-7.666-.765.177-1.2.262-1.633.38-2.49.684-5,1.306-7.453,2.092a2.209,2.209,0,0,1-2.578-.7c-2.069-2.114-4.218-4.149-6.342-6.208-.275-.265-.593-.484-1.2-.975,0,3.659-.048,6.933.026,10.206a1.515,1.515,0,0,1-1.292,1.764c-2.46.742-4.885,1.6-7.324,2.415" transform="translate(129.994 61.927)" fill="#155163"/>
    </g>
  </g>
</svg>
